<svg width="25px" height="25px" viewBox="0 0 25 25" version="1.1" xmlns="http://www.w3.org/2000/svg" xmlns:xlink="http://www.w3.org/1999/xlink">
    <title>icon-regenerate</title>
    <desc>Created with Sketch.</desc>
    <g id="Page-1" stroke="none" stroke-width="1" fill="none" fill-rule="evenodd">
        <g id="Artboard" transform="translate(-156.000000, -164.000000)">
            <g id="icon-regenerate" transform="translate(156.000000, 164.000000)">
                <circle id="Oval" stroke="#84D24B" cx="12.5" cy="12.5" r="12"></circle>
                <g id="si-glyph:arrow-circle-rycycle" transform="translate(1.000000, 0.000000)">
                    <g id="Group-3" transform="translate(4.500000, 4.500000)" fill="#2C3E50">
                        <path d="M14.9354926,8.95839139 L13.6283591,8.55911141 C13.6347177,8.43445358 13.6438013,8.3116703 13.6438013,8.18794974 C13.6438013,4.87936216 11.4464726,2.0084829 8.41890077,1.36363636 L8.18181818,2.63927028 C10.6425719,3.16508264 12.4284124,5.49702766 12.4284124,8.18794974 L12.4284124,8.19357341 L11.2457245,7.83272178 C11.0020083,7.98416756 10.9167884,8.30658726 11.0522434,8.56473507 L12.1259277,10.6333053 C12.2621821,10.8919937 12.5673918,10.9847841 12.810833,10.842318 L14.7429198,9.69040467 C14.9863061,9.53864946 15.0711075,9.21630007 14.9354926,8.95839139 L14.9354926,8.95839139 Z" id="Icon-Path"></path>
                        <path d="M1.27391754,8.48774823 C1.27391754,6.15656192 2.53640981,4.07503943 4.41586662,3.09818023 L4.99855536,4.74080959 C5.1373543,4.80612866 5.29571772,4.80988113 5.43723016,4.75120413 C5.5787426,4.69252713 5.69122592,4.57647023 5.74881472,4.42972056 L6.76852002,1.96280432 C6.8965688,1.65561014 6.76885027,1.29800523 6.47907986,1.15238766 L4.19402598,0.0526780181 C4.05541643,-0.0132799537 3.89693197,-0.0174707684 3.75528183,0.0410762785 C3.61363168,0.0996233254 3.50110524,0.215828766 3.44376662,0.362776324 L3.95885585,1.81419491 C1.5976335,2.9961351 0,5.58392032 0,8.48873896 C0,9.30509999 0.128534281,10.1194796 0.384650737,10.9090909 L1.58620824,10.4563276 C1.38046373,9.82203207 1.27499622,9.15719906 1.27391754,8.48774823 Z" id="Icon-Path"></path>
                        <path d="M6.99009003,13.5747119 C5.94849935,13.5747119 4.93379486,13.3044654 4.04754657,12.7413662 L5.1697958,11.520633 C5.1711816,11.3566131 5.10810236,11.1990133 4.9949562,11.0838064 C4.88181003,10.9685995 4.72825391,10.9056184 4.5693377,10.9092388 L1.95440737,10.9092388 C1.79337662,10.912998 1.64046021,10.9829246 1.52959571,11.1034994 C1.41873121,11.2240743 1.35908947,11.3853233 1.36390711,11.5514596 L1.38183123,14.3546248 C1.37970381,14.5208384 1.4420669,14.6810301 1.5550349,14.7995321 C1.6680029,14.9180341 1.82219712,14.9850084 1.98328512,14.9855425 L3.09458072,13.7771399 C4.24415561,14.5801718 5.60189474,15.0063619 6.99009003,14.9999282 C8.99460441,14.9999282 10.919456,14.0802681 12.2727273,12.4783126 L11.284909,11.5216605 C10.1835712,12.8266531 8.61819783,13.5747119 6.99009003,13.5747119 L6.99009003,13.5747119 Z" id="Icon-Path"></path>
                    </g>
                    <rect id="ViewBox" fill-rule="nonzero" x="0" y="0" width="24" height="24"></rect>
                </g>
            </g>
        </g>
    </g>
</svg>
